{
    "KPackageStructure": "Plasma/LookAndFeel",
    "KPlugin": {
        "Authors": [
            {
                "Email": "gicalucejo@gmail.com",
                "Name": "jomada"
            }
        ],
        "Category": "Global Themes (Plasma 6)",
        "ServiceTypes": [
            "Plasma/LookAndFeel"
        ],
        "EnabledByDefault": true,
        "Name": "Apus",
        "Description": "Apus Desktop Design",
        "Id": "Apus",
        "Version": "2.0",
        "License": "GPL 3+",
        "Website": "https://seduccionlinux.wordpress.com",
        "Keywords": "Desktop;Workspace;Appearance;Look and Feel;Logout;Lock;Suspend;Shutdown;Hibernate;",
        "X-Plasma-APIVersion": "2"
    },
     "X-KPackage-Dependencies": [
        "kns://colorschemes.knsrc/api.kde-look.org/1264371",
        "kns://plasma-themes.knsrc/api.kde-look.org/1264370",
        "kns://aurorae.knsrc/api.kde-look.org/1665212",
        "kns://xcursor.knsrc/api.kde-look.org/1411743",
        "kns://wallpaper.knsrc/api.kde-look.org/1665612",
        "kns://wallpaper.knsrc/api.kde-look.org/2096198"
    ]
}
